{
  "page": 1,
  "total_results": 109,
  "total_pages": 6,
  "results": [
    {
      "popularity": 44.534,
      "vote_count": 546,
      "video": false,
      "poster_path": "/q125RHUDgR4gjwh1QkfYuJLYkL.jpg",
      "id": 508965,
      "adult": false,
      "backdrop_path": "/mlxKite1x1PgmIhJgAxNS9eHmH8.jpg",
      "original_language": "en",
      "original_title": "Klaus",
      "genre_ids": [
        12,
        16,
        35,
        10751
      ],
      "title": "Klaus",
      "vote_average": 8.3,
      "overview": "When Jesper distinguishes himself as the Postal Academy's worst student, he is sent to Smeerensburg, a small village located on a icy island above the Arctic Circle, where grumpy inhabitants barely exchange words, let alone letters. Jesper is about to give up and abandon his duty as a postman when he meets local teacher Alva and Klaus, a mysterious carpenter who lives alone in a cabin full of handmade toys.",
      "release_date": "2019-11-08"
    },
    {
      "popularity": 23.287,
      "vote_count": 2180,
      "video": false,
      "poster_path": "/bSqt9rhDZx1Q7UZ86dBPKdNomp2.jpg",
      "id": 1585,
      "adult": false,
      "backdrop_path": "/nMomMy1sD3SN2QsKop3zBXCJfDJ.jpg",
      "original_language": "en",
      "original_title": "It's a Wonderful Life",
      "genre_ids": [
        18,
        14,
        10751
      ],
      "title": "It's a Wonderful Life",
      "vote_average": 8.2,
      "overview": "A holiday favourite for generations...  George Bailey has spent his entire life giving to the people of Bedford Falls.  All that prevents rich skinflint Mr. Potter from taking over the entire town is George's modest building and loan company.  But on Christmas Eve the business's $8,000 is lost and George's troubles begin.",
      "release_date": "1946-12-20"
    },
    {
      "popularity": 7.756,
      "vote_count": 227,
      "video": false,
      "poster_path": "/aa1OzPBKp05DWKCMla12SU5LIK5.jpg",
      "id": 20334,
      "adult": false,
      "backdrop_path": "/wqgZSvgoctaadgwUdPYVsksivxn.jpg",
      "original_language": "en",
      "original_title": "The Shop Around the Corner",
      "genre_ids": [
        35,
        18,
        10749
      ],
      "title": "The Shop Around the Corner",
      "vote_average": 7.9,
      "overview": "Two employees at a gift shop can barely stand one another, without realising that they are falling in love through the post as each other's anonymous pen pal.",
      "release_date": "1940-01-11"
    },
    {
      "popularity": 10.277,
      "vote_count": 400,
      "video": false,
      "poster_path": "/aY1q9dTGC8u8TUsAgnpJHsdAdJZ.jpg",
      "id": 13398,
      "adult": false,
      "backdrop_path": "/fHJDbaPJvoyaVnIvoUFml3yndqY.jpg",
      "original_language": "ja",
      "original_title": "東京ゴッドファーザーズ",
      "genre_ids": [
        16,
        18
      ],
      "title": "Tokyo Godfathers",
      "vote_average": 7.8,
      "overview": "One Christmas Eve three people, a middle-aged alcoholic named Gin, a former drag queen Hana and a dependent runaway girl Miyuki, discover an abandoned newborn while looking through the garbage.",
      "release_date": "2003-12-29"
    },
    {
      "popularity": 8.765,
      "vote_count": 316,
      "video": false,
      "poster_path": "/aVXiJ6n3S1AdvnY8xs9Dh9hFq64.jpg",
      "id": 5961,
      "adult": false,
      "backdrop_path": "/jVzoKlWUpsKV3y5oLafLQhEvgX6.jpg",
      "original_language": "sv",
      "original_title": "Fanny och Alexander",
      "genre_ids": [
        18,
        14,
        9648
      ],
      "title": "Fanny & Alexander",
      "vote_average": 7.8,
      "overview": "As children in the loving Ekdahl family, Fanny and Alexander enjoy a happy life with their parents, who run a theater company. After their father dies unexpectedly, however, the siblings end up in a joyless home when their mother, Emilie, marries a stern bishop. The bleak situation gradually grows worse as the bishop becomes more controlling, but dedicated relatives make a valiant attempt to aid Emilie, Fanny and Alexander.",
      "release_date": "1982-12-17"
    },
    {
      "popularity": 17.748,
      "id": 9479,
      "video": false,
      "vote_count": 5198,
      "vote_average": 7.8,
      "title": "The Nightmare Before Christmas",
      "release_date": "1993-10-09",
      "original_language": "en",
      "original_title": "The Nightmare Before Christmas",
      "genre_ids": [
        14,
        16,
        10751
      ],
      "backdrop_path": "/16lk65YfrDFIr6evkWRjSeOOSws.jpg",
      "adult": false,
      "overview": "Tired of scaring humans every October 31 with the same old bag of tricks, Jack Skellington, the spindly king of Halloween Town, kidnaps Santa Claus and plans to deliver shrunken heads and other ghoulish gifts to children on Christmas morning. But as Christmas approaches, Jack's rag-doll girlfriend, Sally, tries to foil his misguided plans.",
      "poster_path": "/6oxkO1VgKCq74fNILKAg6t2dVEt.jpg"
    },
    {
      "popularity": 9.679,
      "vote_count": 264,
      "video": false,
      "poster_path": "/2PtDbmN7HAu4W5WqrUocBV8lgiZ.jpg",
      "id": 632,
      "adult": false,
      "backdrop_path": "/zgM5leh0dKPXllIJwemc3dVRyE7.jpg",
      "original_language": "en",
      "original_title": "Stalag 17",
      "genre_ids": [
        10752
      ],
      "title": "Stalag 17",
      "vote_average": 7.8,
      "overview": "It's a dreary Christmas 1944 for the American POWs in Stalag 17. For the men in Barracks 4, all sergeants, have to deal with a grave problem - there seems to be a security leak. The Germans always seem to be forewarned about escapes and in the most recent attempt the two men, Manfredi and Johnson, walked straight into a trap and were killed. For some in Barracks 4, especially the loud-mouthed Duke, the leaker is obvious: J.J. Sefton, a wheeler-dealer who doesn't hesitate to trade with the guards and who has acquired goods and privileges that no other prisoner seems to have. Sefton denies giving the Germans any information and makes it quite clear that he has no intention of ever trying to escape. He plans to ride out the war in what little comfort he can arrange, but does it extend to spying for the Germans?",
      "release_date": "1953-05-29"
    },
    {
      "popularity": 27.238,
      "vote_count": 6665,
      "video": false,
      "poster_path": "/mc7MubOLcIw3MDvnuQFrO9psfCa.jpg",
      "id": 562,
      "adult": false,
      "backdrop_path": "/eg049B1TJdWuKuyKowNmhZxNToc.jpg",
      "original_language": "en",
      "original_title": "Die Hard",
      "genre_ids": [
        28,
        53
      ],
      "title": "Die Hard",
      "vote_average": 7.7,
      "overview": "NYPD cop John McClane's plan to reconcile with his estranged wife is thrown for a serious loop when, minutes after he arrives at her office, the entire building is overtaken by a group of terrorists. With little help from the LAPD, wisecracking McClane sets out to single-handedly rescue the hostages and bring the bad guys down.",
      "release_date": "1988-07-15"
    },
    {
      "popularity": 11.15,
      "vote_count": 310,
      "video": false,
      "poster_path": "/3Bn0tc1BsheZwUQtvl10wTgQ16J.jpg",
      "id": 13187,
      "adult": false,
      "backdrop_path": "/rtPtwVTo4RqumivX2zspSk8GyCy.jpg",
      "original_language": "en",
      "original_title": "A Charlie Brown Christmas",
      "genre_ids": [
        16,
        35,
        10751,
        10770
      ],
      "title": "A Charlie Brown Christmas",
      "vote_average": 7.7,
      "overview": "When Charlie Brown complains about the overwhelming materialism that he sees amongst everyone during the Christmas season, Lucy suggests that he become director of the school Christmas pageant. Charlie Brown accepts, but is a frustrating struggle. When an attempt to restore the proper spirit with a forlorn little fir Christmas tree fails, he needs Linus' help to learn the meaning of Christmas.",
      "release_date": "1965-12-09"
    },
    {
      "popularity": 17.501,
      "vote_count": 432,
      "video": false,
      "poster_path": "/29iF1IiC3ZyJQ1kmTf4LD8p8oro.jpg",
      "id": 14813,
      "adult": false,
      "backdrop_path": "/fDK3xeAcQfQ40ZUULgZshElkspa.jpg",
      "original_language": "en",
      "original_title": "Mickey's Christmas Carol",
      "genre_ids": [
        16,
        10751
      ],
      "title": "Mickey's Christmas Carol",
      "vote_average": 7.5,
      "overview": "It is an adaptation of the Charles Dickens classic A Christmas Carol, featuring Scrooge McDuck as his namesake and inspiration Ebenezer Scrooge and Mickey Mouse as Bob Cratchit. This film was based on a 1972 audio musical entitled Disney's A Christmas Carol. It is a twenty-four minute animated short film produced by Walt Disney Productions as an accompaniment to a re-release of The Rescuers.",
      "release_date": "1983-10-19"
    },
    {
      "popularity": 7.045,
      "vote_count": 547,
      "video": false,
      "poster_path": "/rdSSo5YEG6SToyQOtTiOYS34jh2.jpg",
      "id": 14645,
      "adult": false,
      "backdrop_path": "/bfrzlWoKwKPY75ziEYAyOYWdp1P.jpg",
      "original_language": "fr",
      "original_title": "Le Père Noël est une ordure",
      "genre_ids": [
        35
      ],
      "title": "Santa Claus Is a Stinker",
      "vote_average": 7.5,
      "overview": "Félix, disguised as Father Christmas, hands out leaflets advertising a sexy Christmas party. His place is taken by an African Santa Claus and he returns to his caravan only to find his girlfriend Josette about to leave him. When he comes after her, she takes refuge at \"SOS Distress\", run by two neurotics, Thérèse and Pierre.",
      "release_date": "1982-08-25"
    },
    {
      "popularity": 15.315,
      "vote_count": 2688,
      "video": false,
      "poster_path": "/kBABboeLU2HsKWSG7DwiF9saHl5.jpg",
      "id": 8321,
      "adult": false,
      "backdrop_path": "/3rS0W0aHwd9GvmyJabu9D1xOcE8.jpg",
      "original_language": "en",
      "original_title": "In Bruges",
      "genre_ids": [
        35,
        80,
        18
      ],
      "title": "In Bruges",
      "vote_average": 7.5,
      "overview": "Ray and Ken, two hit men, are in Bruges, Belgium, waiting for their next mission. While they are there they have time to think and discuss their previous assignment. When the mission is revealed to Ken, it is not what he expected.",
      "release_date": "2008-02-08"
    },
    {
      "popularity": 13.922,
      "vote_count": 566,
      "video": false,
      "poster_path": "/7ir0iRuPK9OEuH569cp0nF5CJce.jpg",
      "id": 13377,
      "adult": false,
      "backdrop_path": "/3kuQVBTd4c5dfdj2BFJKWJ0ZWA6.jpg",
      "original_language": "en",
      "original_title": "How the Grinch Stole Christmas!",
      "genre_ids": [
        16,
        35,
        10751
      ],
      "title": "How the Grinch Stole Christmas!",
      "vote_average": 7.4,
      "overview": "Bitter and hateful, the Grinch is irritated at the thought of a nearby village having a happy time celebrating Christmas. Disguised as Santa Claus, with his dog made to look like a reindeer, he decides to raid the village to steal all the Christmas things.",
      "release_date": "1966-12-18"
    },
    {
      "popularity": 12.702,
      "id": 11881,
      "video": false,
      "vote_count": 328,
      "vote_average": 7.4,
      "title": "Miracle on 34th Street",
      "release_date": "1947-06-11",
      "original_language": "en",
      "original_title": "Miracle on 34th Street",
      "genre_ids": [
        35,
        18,
        10751
      ],
      "backdrop_path": "/i90947b0zLbH1P4qjAxqiQdRfiZ.jpg",
      "adult": false,
      "overview": "Kris Kringle, seemingly the embodiment of Santa Claus, is asked to portray the jolly old fellow at Macy's following his performance in the Thanksgiving Day parade. His portrayal is so complete that many begin to question if he truly is Santa Claus, while others question his sanity.",
      "poster_path": "/h8kkqroLwxvAHxWGIStEZaNd4wr.jpg"
    },
    {
      "popularity": 16.031,
      "vote_count": 652,
      "video": false,
      "poster_path": "/u348XMdz7g2Eu54yntt1qshUixk.jpg",
      "id": 850,
      "adult": false,
      "backdrop_path": "/wok0YepwQfBAPsrttFq0W6HXT2g.jpg",
      "original_language": "en",
      "original_title": "A Christmas Story",
      "genre_ids": [
        35,
        10751
      ],
      "title": "A Christmas Story",
      "vote_average": 7.4,
      "overview": "The comic mishaps and adventures of a young boy named Ralph, trying to convince his parents, teachers, and Santa that a Red Ryder B.B. gun really is the perfect Christmas gift for the 1940s.",
      "release_date": "1983-11-18"
    },
    {
      "popularity": 13.13,
      "vote_count": 234,
      "video": false,
      "poster_path": "/A5kBQsHKbIptxJyELEpHQJROCRj.jpg",
      "id": 13368,
      "adult": false,
      "backdrop_path": "/ppDnBvf0f7vCZHRLtDjazpYHdTF.jpg",
      "original_language": "en",
      "original_title": "White Christmas",
      "genre_ids": [
        35,
        10402,
        10749
      ],
      "title": "White Christmas",
      "vote_average": 7.4,
      "overview": "Two talented song-and-dance men team up after the war to become one of the hottest acts in show business. In time they befriend and become romantically involved with the beautiful Haynes sisters who comprise a sister act.",
      "release_date": "1954-10-14"
    },
    {
      "popularity": 11.505,
      "vote_count": 468,
      "video": false,
      "poster_path": "/9Ka8lKCIiWjnZiMslPQeakS5UhW.jpg",
      "id": 11661,
      "adult": false,
      "backdrop_path": "/tcrrE9vjnenDxOZrbCcY4V7LdVw.jpg",
      "original_language": "fr",
      "original_title": "Joyeux Noël",
      "genre_ids": [
        18,
        36,
        10402,
        10749,
        10752
      ],
      "title": "Joyeux Noël",
      "vote_average": 7.4,
      "overview": "In 1914, World War I, the bloodiest war ever at that time in human history, was well under way. However on Christmas Eve, numerous sections of the Western Front called an informal, and unauthorized, truce where the various front-line soldiers of the conflict peacefully met each other in No Man's Land to share a precious pause in the carnage with a fleeting brotherhood.",
      "release_date": "2005-11-09"
    },
    {
      "popularity": 17.331,
      "vote_count": 476,
      "video": false,
      "poster_path": "/gymTN87x0CxDJmn2aEel0kfrRHM.jpg",
      "id": 10437,
      "adult": false,
      "backdrop_path": "/h6NQoXBxD0uaIrpuk9FFV89vITT.jpg",
      "original_language": "en",
      "original_title": "The Muppet Christmas Carol",
      "genre_ids": [
        35,
        18,
        14,
        10402,
        10751
      ],
      "title": "The Muppet Christmas Carol",
      "vote_average": 7.3,
      "overview": "A retelling of the classic Dickens tale of Ebenezer Scrooge, miser extraordinaire. He is held accountable for his dastardly ways during night-time visitations by the Ghosts of Christmas Past, Present, and future.",
      "release_date": "1992-12-10"
    },
    {
      "popularity": 14.981,
      "id": 13382,
      "video": false,
      "vote_count": 267,
      "vote_average": 7.3,
      "title": "Rudolph the Red-Nosed Reindeer",
      "release_date": "1964-12-06",
      "original_language": "en",
      "original_title": "Rudolph the Red-Nosed Reindeer",
      "genre_ids": [
        16,
        10751,
        10770
      ],
      "backdrop_path": "/zd3p7GKopxH4rIjGoDQ1ugalUtx.jpg",
      "adult": false,
      "overview": "Sam the snowman tells us the story of a young red-nosed reindeer who, after being ousted from the reindeer games because of his glowing nose, teams up with Hermey, an elf who wants to be a dentist, and Yukon Cornelius, the prospector. They run into the Abominable Snowman and find a whole island of misfit toys. Rudoph vows to see if he can get Santa to help the toys, and he goes back to the North Pole on Christmas Eve. But Santa's sleigh is fogged in. But when Santa looks over Rudolph, he gets a very bright idea...",
      "poster_path": "/r0vtyGOwTLZg4pgtbjlMGke7Qo1.jpg"
    },
    {
      "popularity": 14.496,
      "vote_count": 4019,
      "video": false,
      "poster_path": "/sIZr3pWcnLTjMkOaTkBrV967lTK.jpg",
      "id": 81188,
      "adult": false,
      "backdrop_path": "/uLAzeXooxaCJvxltbEqZQHLxniP.jpg",
      "original_language": "en",
      "original_title": "Rise of the Guardians",
      "genre_ids": [
        16,
        14,
        10751
      ],
      "title": "Rise of the Guardians",
      "vote_average": 7.3,
      "overview": "When an evil spirit known as Pitch lays down the gauntlet to take over the world, the immortal Guardians must join forces for the first time to protect the hopes, beliefs and imagination of children all over the world.",
      "release_date": "2012-11-21"
    }
  ]
}